﻿{
    "version": 3,
    "configurePresets": [
        {
            "name": "windows-base",
            "hidden": true,
            "generator": "Ninja",
            //"buildCommandArgs": "-v",
            "binaryDir": "${sourceDir}/out/${presetName}",
            "installDir": "${sourceDir}/out/install/${presetName}",
            "cacheVariables": {
                "CMAKE_C_COMPILER": "cl.exe",
                "CMAKE_CXX_COMPILER": "cl.exe"
            },
            "condition": {
                "type": "equals",
                "lhs": "${hostSystemName}",
                "rhs": "Windows"
            }
        },
        {
          "name": "x64-debug",
          "displayName": "x64 Debug",
          "inherits": "windows-base",
          "architecture": {
            "value": "x64",
            "strategy": "external"
          },
          "binaryDir": "${sourceDir}/cmake-build-debug-visual-studio",
          "installDir": "${sourceDir}/cmake-build-debug-visual-studio",
          "cacheVariables": {
            "CMAKE_BUILD_TYPE": "Debug"
          }
        },
        {
            "name": "x64-release",
            "displayName": "x64 Release",
            "inherits": "x64-debug",
            "binaryDir": "${sourceDir}/cmake-build-release-visual-studio",
            "installDir": "${sourceDir}/cmake-build-release-visual-studio",
            "cacheVariables": {
                "CMAKE_BUILD_TYPE": "Release"
            }
        },
      {
        "name": "x64-release-with-debug-info",
        "displayName": "x64 Release Debug Info",
        "inherits": "x64-debug",
        "binaryDir": "${sourceDir}/cmake-build-release-debug-info-visual-studio",
        "installDir": "${sourceDir}/cmake-build-release-debug-info-visual-studio",
        "cacheVariables": {
          "CMAKE_BUILD_TYPE": "RelWithDebInfo"
        }
      }
    ]
}
